Project 1 Final Report
…
# Read in csv GDP data
gdp_data <- read.csv("country_gdps.csv")
gdp_data <- gdp_data |>
  select(-X)

# Combine GDP with aggregate 2020 data
country_meta_data <- country_data |>
  inner_join(gdp_data, 
             by = "iso3c", 
             relationship = "many-to-many")

country_meta_data

# A tibble: 194 × 48
   Country       Population iso3c country_name  country_code  year
   <chr>              <dbl> <chr> <chr>         <chr>        <dbl>
 1 India         1417492000 IND   India         IND           2020
 2 China         1404890000 CHN   China         CHN           2020
 3 United States  341784857 USA   United States USA           2020
 4 Indonesia      288315089 IDN   Indonesia     IDN           2020
 5 Pakistan       241499431 PAK   Pakistan      PAK           2020
 6 Nigeria        223800000 NGA   Nigeria       NGA           2020
 7 Brazil         213421037 BRA   Brazil        BRA           2020
 8 Bangladesh     169828911 BGD   Bangladesh    BGD           2020
 9 Russia         146028325 RUS   Russia        RUS           2020
10 Mexico         131001723 MEX   Mexico        MEX           2020
# ℹ 184 more rows
# ℹ 42 more variables: regime_category_index <dbl>, regime_category <chr>,
#   is_monarchy <lgl>, is_commonwealth <lgl>, monarch_name <chr>,
#   monarch_accession_year <dbl>, monarch_birthyear <dbl>,
#   is_female_monarch <lgl>, is_democracy <lgl>, is_presidential <lgl>,
#   president_name <chr>, president_accesion_year <dbl>,
#   president_birthyear <dbl>, is_interim_phase <lgl>, …
…
