Project 1 Checkpoint 3
…
pop_data <- populations |>
  html_element("table.wikitable") |>
  html_table(fill = TRUE) |>
  select(
    Country = 1, 
    Population = 2
    ) |>
  mutate(
    Country    = trimws(Country),
    Population = as.numeric(gsub("[^0-9]", "", Population))  # strip anything that isn't a digit
  ) %>%
  filter(!is.na(Population))
pop_data

# A tibble: 240 × 2
   Country       Population
   <chr>              <dbl>
 1 World         8232000000
 2 India         1417492000
 3 China         1404890000
 4 United States  341784857
 5 Indonesia      288315089
 6 Pakistan       241499431
 7 Nigeria        223800000
 8 Brazil         213421037
 9 Bangladesh     169828911
10 Russia         146028325
# ℹ 230 more rows
…
